{"_id":{"$oid":"62393bb04c8e748b63cfce48"},"created_at":{"$date":{"$numberLong":"1647906436000"}},"title":null,"url":null,"author":"israrkhan","points":null,"story_text":null,"comment_text":"if you are using neovim, nvim-dap has support for debug adapters, which includes gdb in addition to several other languages (python, nodejs, java etc). Here [1] are available debug adapters.<p>It is noteable that nvim-dap just provides support for debug adapters, if you are looking for nice UI, there are other plugins such as nvim-dap-ui [2].<p>In vim land, there is vimspector. I have not used vimspector myself, but from what I hear, it is slower than nvim-dap.<p>[1] <a href=\"https:&#x2F;&#x2F;microsoft.github.io&#x2F;debug-adapter-protocol&#x2F;implementors&#x2F;adapters&#x2F;\" rel=\"nofollow\">https:&#x2F;&#x2F;microsoft.github.io&#x2F;debug-adapter-protocol&#x2F;implement...</a><p>[2] <a href=\"https:&#x2F;&#x2F;github.com&#x2F;rcarriga&#x2F;nvim-dap-ui\" rel=\"nofollow\">https:&#x2F;&#x2F;github.com&#x2F;rcarriga&#x2F;nvim-dap-ui</a>","num_comments":null,"story_id":{"$numberInt":"30737509"},"story_title":"Debugging with GDB","story_url":"https://www.sourceware.org/gdb/current/onlinedocs/gdb.html","parent_id":{"$numberInt":"30755226"},"created_at_i":{"$numberInt":"1647906436"},"_tags":["comment","author_israrkhan","story_30737509"],"objectID":"30761212","_highlightResult":[{"author":{"value":"israrkhan","matchLevel":"none","matchedWords":[]},"comment_text":{"value":"if you are using neovim, nvim-dap has support for debug adapters, which includes gdb in addition to several other languages (python, <em>nodejs</em>, java etc). Here [1] are available debug adapters.<p>It is noteable that nvim-dap just provides support for debug adapters, if you are looking for nice UI, there are other plugins such as nvim-dap-ui [2].<p>In vim land, there is vimspector. I have not used vimspector myself, but from what I hear, it is slower than nvim-dap.<p>[1] <a href=\"https://microsoft.github.io/debug-adapter-protocol/implementors/adapters/\" rel=\"nofollow\">https://microsoft.github.io/debug-adapter-protocol/implement...</a><p>[2] <a href=\"https://github.com/rcarriga/nvim-dap-ui\" rel=\"nofollow\">https://github.com/rcarriga/nvim-dap-ui</a>","matchLevel":"full","fullyHighlighted":false,"matchedWords":["nodejs"]},"story_title":{"value":"Debugging with GDB","matchLevel":"none","matchedWords":[]},"story_url":{"value":"https://www.sourceware.org/gdb/current/onlinedocs/gdb.html","matchLevel":"none","matchedWords":[]}}],"__v":{"$numberInt":"0"}}
{"_id":{"$oid":"62393bb04c8e748b63cfce4a"},"created_at":{"$date":{"$numberLong":"1647903158000"}},"title":null,"url":null,"author":"dekhn","points":null,"story_text":null,"comment_text":"if you&#x27;re asking whether we could sequence 7 billion people, yes, it would be absolutely possible.  Obtaining samples would be harder than the sequencing.  If you really took this seriously there would be only 3 sequencing sites in the world and they would be located close to the largest datacenters.  Each sequence is about 100G data (the raw data file that&#x27;s shipped around) so if you really wanted to keep all of that it&#x27;s 700 exabytes, but since you&#x27;re sequencing everybody, you can instead create a tree structure of deltas from references with additional nodes representing major haplotypes and other structure.  This would be more like ~1M-1G&#x2F;person, so 7 petabytes to 7 exabytes, well within the storage limits of a modern datacenter cluster.  To go along with that storage, you&#x27;d also need ~1M fast CPUs and ~250K fast GPUs, plenty of RAM, and a really good privacy and security story.<p>All of that could be formatted for large-scale analytics and the problem treated much like machine learning&#x2F;data science problems in ads and other similar areas.<p>If you&#x27;re really serious, this is just a bulk buy for one of the data center providers and they would be happy to make a fixed profit margin contract to do this for you.  I helped set up all the infrastructure to enable google to do this ~10 years ago (I got a patent on compressing DNA for storage) and now they&#x27;re at the point of hosting this sort of service (terra bio).  I could do everything I described above for $25B but there is absolutely no medical reason to do anything of this scale.","num_comments":null,"story_id":{"$numberInt":"30756232"},"story_title":"Scientists say they can read nearly the whole genome of an IVF-created embryo","story_url":"https://www.science.org/content/article/scientists-say-they-can-read-nearly-whole-genome-ivf-created-embryo","parent_id":{"$numberInt":"30758184"},"created_at_i":{"$numberInt":"1647903158"},"_tags":["comment","author_dekhn","story_30756232"],"objectID":"30760798","_highlightResult":[{"author":{"value":"dekhn","matchLevel":"none","matchedWords":[]},"comment_text":{"value":"if you're asking whether we could sequence 7 billion people, yes, it would be absolutely possible.  Obtaining samples would be harder than the sequencing.  If you really took this seriously there would be only 3 sequencing sites in the world and they would be located close to the largest datacenters.  Each sequence is about 100G data (the raw data file that's shipped around) so if you really wanted to keep all of that it's 700 exabytes, but since you're sequencing everybody, you can instead create a tree structure of deltas from references with additional <em>nodes</em> representing major haplotypes and other structure.  This would be more like ~1M-1G/person, so 7 petabytes to 7 exabytes, well within the storage limits of a modern datacenter cluster.  To go along with that storage, you'd also need ~1M fast CPUs and ~250K fast GPUs, plenty of RAM, and a really good privacy and security story.<p>All of that could be formatted for large-scale analytics and the problem treated much like machine learning/data science problems in ads and other similar areas.<p>If you're really serious, this is just a bulk buy for one of the data center providers and they would be happy to make a fixed profit margin contract to do this for you.  I helped set up all the infrastructure to enable google to do this ~10 years ago (I got a patent on compressing DNA for storage) and now they're at the point of hosting this sort of service (terra bio).  I could do everything I described above for $25B but there is absolutely no medical reason to do anything of this scale.","matchLevel":"full","fullyHighlighted":false,"matchedWords":["nodejs"]},"story_title":{"value":"Scientists say they can read nearly the whole genome of an IVF-created embryo","matchLevel":"none","matchedWords":[]},"story_url":{"value":"https://www.science.org/content/article/scientists-say-they-can-read-nearly-whole-genome-ivf-created-embryo","matchLevel":"none","matchedWords":[]}}],"__v":{"$numberInt":"0"}}
{"_id":{"$oid":"62393bb04c8e748b63cfce4c"},"created_at":{"$date":{"$numberLong":"1647900815000"}},"title":null,"url":null,"author":"ctoth","points":null,"story_text":null,"comment_text":"Just tried it with NVDA on Windows and it appears that it does not handle keyboard accessibility at all and does not communicate the relationships between nodes.","num_comments":null,"story_id":{"$numberInt":"30759358"},"story_title":"React Arborist – A full-featured tree component for React","story_url":"https://github.com/brimdata/react-arborist","parent_id":{"$numberInt":"30760336"},"created_at_i":{"$numberInt":"1647900815"},"_tags":["comment","author_ctoth","story_30759358"],"objectID":"30760395","_highlightResult":[{"author":{"value":"ctoth","matchLevel":"none","matchedWords":[]},"comment_text":{"value":"Just tried it with NVDA on Windows and it appears that it does not handle keyboard accessibility at all and does not communicate the relationships between <em>nodes</em>.","matchLevel":"full","fullyHighlighted":false,"matchedWords":["nodejs"]},"story_title":{"value":"React Arborist – A full-featured tree component for React","matchLevel":"none","matchedWords":[]},"story_url":{"value":"https://github.com/brimdata/react-arborist","matchLevel":"none","matchedWords":[]}}],"__v":{"$numberInt":"0"}}
{"_id":{"$oid":"62393bb04c8e748b63cfce4e"},"created_at":{"$date":{"$numberLong":"1647896310000"}},"title":null,"url":null,"author":"xiphias2","points":null,"story_text":null,"comment_text":"One of the questions for passing scoped classes to a component is why you want to do it. If you have complex selectors, it would effect the implementation of the component, so I think that would be an anti-pattern. Just modifying the root would be great, but in Svelte I believe one component can translate to multiple root nodes, so all of them would need to get the styles, which again would increase the coupling between the component usage and implementation. I think there&#x27;s just no clean way to do what you want.","num_comments":null,"story_id":{"$numberInt":"30757259"},"story_title":"CSS's !important was added for one reason only","story_url":"https://twitter.com/stevenpemberton/status/1505839184287870981","parent_id":{"$numberInt":"30759376"},"created_at_i":{"$numberInt":"1647896310"},"_tags":["comment","author_xiphias2","story_30757259"],"objectID":"30759619","_highlightResult":[{"author":{"value":"xiphias2","matchLevel":"none","matchedWords":[]},"comment_text":{"value":"One of the questions for passing scoped classes to a component is why you want to do it. If you have complex selectors, it would effect the implementation of the component, so I think that would be an anti-pattern. Just modifying the root would be great, but in Svelte I believe one component can translate to multiple root <em>nodes</em>, so all of them would need to get the styles, which again would increase the coupling between the component usage and implementation. I think there's just no clean way to do what you want.","matchLevel":"full","fullyHighlighted":false,"matchedWords":["nodejs"]},"story_title":{"value":"CSS's !important was added for one reason only","matchLevel":"none","matchedWords":[]},"story_url":{"value":"https://twitter.com/stevenpemberton/status/1505839184287870981","matchLevel":"none","matchedWords":[]}}],"__v":{"$numberInt":"0"}}
{"_id":{"$oid":"62393bb04c8e748b63cfce50"},"created_at":{"$date":{"$numberLong":"1647890972000"}},"title":"Show HN: Node CLI to send or recieve UDP packages (in Spanish)","url":"https://github.com/alepiumetti/packet-sender-nodejs","author":"piuma","points":{"$numberInt":"1"},"story_text":null,"comment_text":null,"num_comments":{"$numberInt":"0"},"story_id":null,"story_title":null,"story_url":null,"parent_id":null,"created_at_i":{"$numberInt":"1647890972"},"_tags":["story","author_piuma","story_30758617","show_hn"],"objectID":"30758617","_highlightResult":[{"title":{"value":"Show HN: Node CLI to send or recieve UDP packages (in Spanish)","matchLevel":"none","matchedWords":[]},"url":{"value":"https://github.com/alepiumetti/packet-sender-<em>nodejs</em>","matchLevel":"full","fullyHighlighted":false,"matchedWords":["nodejs"]},"author":{"value":"piuma","matchLevel":"none","matchedWords":[]}}],"__v":{"$numberInt":"0"}}
{"_id":{"$oid":"62393bb04c8e748b63cfce52"},"created_at":{"$date":{"$numberLong":"1647885485000"}},"title":null,"url":null,"author":"Fomite","points":null,"story_text":null,"comment_text":"These rates are negotiated with the government, and aren&#x27;t exceeding the actual costs. Indeed, someone I know crunched the numbers for my institution, and the &quot;margin&quot; is exceedingly tight, and for some projects, negative.<p>I <i>am</i> faculty, and while yes, we are incentivized to bring in money, we also have output too. And believe me, when talking to funders, &quot;gee, I didn&#x27;t do any work because I was bringing in more grants&quot; is a pretty dangerous strategy.<p>Indirects also cover important things. On my current grants, the following are covered by indirect costs, just as examples.<p>- The data center and networking infrastructure where my particular nodes on our cluster live.<p>- My actual office, including things like the facilities folks that keep it clean, lighting and heating, IT infrastructure again, as well as things like paper for the printer because I prefer to read on actual paper.<p>- The library and journal subscriptions that provide me the material I actually need to read.<p>- The admins who are helping shepherd a position I&#x27;m hiring for through the process of doing that, posting the position descriptions on the relevant sites, etc. The one who put in a bunch of orders for me for an international project where it&#x27;s cheaper to buy the stuff here, set it up, and then carry it with me than it is to get it there. The one who knows the reporting requirements I don&#x27;t. The IRB admin who helped us figure out some human subjects issues around doing research that involves university employees in their capacity as employees. The admin that helped me actually prepare and submit the proposal.<p>- The attorney that helped review and sort out several fairly complex agreements, as well as a whole host of fairly simple ones that still needed to be checked.<p>- The senior level administrator (the usual boogeyman in these things) who is spearheading an effort to consolidate several of individual-level efforts into something that&#x27;s coherent at the university level, so we can actually act on things that don&#x27;t require individual-level researchers like me to have the bandwidth to keep a relationship alive, and which persists past turnover either at the university or the organizations we are working with.<p>- The startup funding for a new disease ecologist before I can put them on some new grants.<p>All of these help propel my research forward. My indirects pay for my share of these people&#x27;s time and expertise. And importantly, they help cover things that I can&#x27;t foresee, or are enough layers of removed from me that I don&#x27;t even really know who we&#x27;re paying as much as &quot;This thing gets done&quot;.<p>Is there waste in our indirects? Sure. There&#x27;s waste everywhere. But it&#x27;s both hardly the terribly oppressive burden HN seems to think it is (even leaving aside that HN consistently does the math wrong) and something that exists in industry as well - it&#x27;s just hidden in the total price.<p>Incidentally, my institution is also perfectly happy to just quote folks a fully burdened price.<p>What happens when we <i>don&#x27;t</i> charge full indirect costs?<p>The taxpayers of my state end up making up the difference, because the lights, and the reporting bits, and the IRB, etc. still have to exist to get the work done. And for some projects one might be able to justify that, but for some others (<i>waves at industry</i>) I have a problem with it.","num_comments":null,"story_id":{"$numberInt":"30744925"},"story_title":"I think US college education is nearer to collapsing than it appears","story_url":"https://twitter.com/sama/status/1505597901011005442","parent_id":{"$numberInt":"30753517"},"created_at_i":{"$numberInt":"1647885485"},"_tags":["comment","author_Fomite","story_30744925"],"objectID":"30757473","_highlightResult":[{"author":{"value":"Fomite","matchLevel":"none","matchedWords":[]},"comment_text":{"value":"These rates are negotiated with the government, and aren't exceeding the actual costs. Indeed, someone I know crunched the numbers for my institution, and the &quot;margin&quot; is exceedingly tight, and for some projects, negative.<p>I <i>am</i> faculty, and while yes, we are incentivized to bring in money, we also have output too. And believe me, when talking to funders, &quot;gee, I didn't do any work because I was bringing in more grants&quot; is a pretty dangerous strategy.<p>Indirects also cover important things. On my current grants, the following are covered by indirect costs, just as examples.<p>- The data center and networking infrastructure where my particular <em>nodes</em> on our cluster live.<p>- My actual office, including things like the facilities folks that keep it clean, lighting and heating, IT infrastructure again, as well as things like paper for the printer because I prefer to read on actual paper.<p>- The library and journal subscriptions that provide me the material I actually need to read.<p>- The admins who are helping shepherd a position I'm hiring for through the process of doing that, posting the position descriptions on the relevant sites, etc. The one who put in a bunch of orders for me for an international project where it's cheaper to buy the stuff here, set it up, and then carry it with me than it is to get it there. The one who knows the reporting requirements I don't. The IRB admin who helped us figure out some human subjects issues around doing research that involves university employees in their capacity as employees. The admin that helped me actually prepare and submit the proposal.<p>- The attorney that helped review and sort out several fairly complex agreements, as well as a whole host of fairly simple ones that still needed to be checked.<p>- The senior level administrator (the usual boogeyman in these things) who is spearheading an effort to consolidate several of individual-level efforts into something that's coherent at the university level, so we can actually act on things that don't require individual-level researchers like me to have the bandwidth to keep a relationship alive, and which persists past turnover either at the university or the organizations we are working with.<p>- The startup funding for a new disease ecologist before I can put them on some new grants.<p>All of these help propel my research forward. My indirects pay for my share of these people's time and expertise. And importantly, they help cover things that I can't foresee, or are enough layers of removed from me that I don't even really know who we're paying as much as &quot;This thing gets done&quot;.<p>Is there waste in our indirects? Sure. There's waste everywhere. But it's both hardly the terribly oppressive burden HN seems to think it is (even leaving aside that HN consistently does the math wrong) and something that exists in industry as well - it's just hidden in the total price.<p>Incidentally, my institution is also perfectly happy to just quote folks a fully burdened price.<p>What happens when we <i>don't</i> charge full indirect costs?<p>The taxpayers of my state end up making up the difference, because the lights, and the reporting bits, and the IRB, etc. still have to exist to get the work done. And for some projects one might be able to justify that, but for some others (<i>waves at industry</i>) I have a problem with it.","matchLevel":"full","fullyHighlighted":false,"matchedWords":["nodejs"]},"story_title":{"value":"I think US college education is nearer to collapsing than it appears","matchLevel":"none","matchedWords":[]},"story_url":{"value":"https://twitter.com/sama/status/1505597901011005442","matchLevel":"none","matchedWords":[]}}],"__v":{"$numberInt":"0"}}
{"_id":{"$oid":"62393bb04c8e748b63cfce54"},"created_at":{"$date":{"$numberLong":"1647882312000"}},"title":null,"url":null,"author":"apnsngr","points":null,"story_text":null,"comment_text":"You can use the debugger from Chrome dev tools to debug Node.js. Just run node with the `—-inspect-brk` flag, open `about:&#x2F;&#x2F;inspect` in Chrome, and select your app under remote targets. This has saved me tons of debugging time. See also: <a href=\"https:&#x2F;&#x2F;nodejs.org&#x2F;en&#x2F;docs&#x2F;guides&#x2F;debugging-getting-started&#x2F;\" rel=\"nofollow\">https:&#x2F;&#x2F;nodejs.org&#x2F;en&#x2F;docs&#x2F;guides&#x2F;debugging-getting-started&#x2F;</a>","num_comments":null,"story_id":{"$numberInt":"30737509"},"story_title":"Debugging with GDB","story_url":"https://www.sourceware.org/gdb/current/onlinedocs/gdb.html","parent_id":{"$numberInt":"30755891"},"created_at_i":{"$numberInt":"1647882312"},"_tags":["comment","author_apnsngr","story_30737509"],"objectID":"30756669","_highlightResult":[{"author":{"value":"apnsngr","matchLevel":"none","matchedWords":[]},"comment_text":{"value":"You can use the debugger from Chrome dev tools to debug Node.js. Just run node with the `—-inspect-brk` flag, open `about://inspect` in Chrome, and select your app under remote targets. This has saved me tons of debugging time. See also: <a href=\"https://nodejs.org/en/docs/guides/debugging-getting-started/\" rel=\"nofollow\">https://<em>nodejs</em>.org/en/docs/guides/debugging-getting-started/</a>","matchLevel":"full","fullyHighlighted":false,"matchedWords":["nodejs"]},"story_title":{"value":"Debugging with GDB","matchLevel":"none","matchedWords":[]},"story_url":{"value":"https://www.sourceware.org/gdb/current/onlinedocs/gdb.html","matchLevel":"none","matchedWords":[]}}],"__v":{"$numberInt":"0"}}
{"_id":{"$oid":"62393bb04c8e748b63cfce56"},"created_at":{"$date":{"$numberLong":"1647879505000"}},"title":null,"url":null,"author":"zebnyc","points":null,"story_text":null,"comment_text":"Unrelated but does anyone have tips on debugging async code in Nodejs.  My work has a gigantic Nodejs monorepo and frankly I am struggling so pointers would be appreciated.  There is dependency injection &amp; layers of async &#x2F; await abstraction.<p>Not fun, when I model my code &#x2F; unit test against a working sample and some method  25+ layers down does not work as expected as it does not have expected input when the stack frame does not even give me the caller.  Is there a better way than peppering the codebase with logging statements?","num_comments":null,"story_id":{"$numberInt":"30737509"},"story_title":"Debugging with GDB","story_url":"https://www.sourceware.org/gdb/current/onlinedocs/gdb.html","parent_id":{"$numberInt":"30737509"},"created_at_i":{"$numberInt":"1647879505"},"_tags":["comment","author_zebnyc","story_30737509"],"objectID":"30755891","_highlightResult":[{"author":{"value":"zebnyc","matchLevel":"none","matchedWords":[]},"comment_text":{"value":"Unrelated but does anyone have tips on debugging async code in <em>Nodejs</em>.  My work has a gigantic <em>Nodejs</em> monorepo and frankly I am struggling so pointers would be appreciated.  There is dependency injection &amp; layers of async / await abstraction.<p>Not fun, when I model my code / unit test against a working sample and some method  25+ layers down does not work as expected as it does not have expected input when the stack frame does not even give me the caller.  Is there a better way than peppering the codebase with logging statements?","matchLevel":"full","fullyHighlighted":false,"matchedWords":["nodejs"]},"story_title":{"value":"Debugging with GDB","matchLevel":"none","matchedWords":[]},"story_url":{"value":"https://www.sourceware.org/gdb/current/onlinedocs/gdb.html","matchLevel":"none","matchedWords":[]}}],"__v":{"$numberInt":"0"}}
{"_id":{"$oid":"62393bb04c8e748b63cfce58"},"created_at":{"$date":{"$numberLong":"1647876025000"}},"title":null,"url":null,"author":"kkfx","points":null,"story_text":null,"comment_text":"My own personal alternatives, but real ones not just another company:<p>- search :: use one or another, simply because the SOLE in the list really free is YaCy (distributed search based on solr) and it&#x27;s actually not much good due to the small indexing activity by participants nodes. Seeing thing like <a href=\"https:&#x2F;&#x2F;noscriptfingerprint.com\" rel=\"nofollow\">https:&#x2F;&#x2F;noscriptfingerprint.com</a> I consider privacy as an impossible thing, my strategy is simply regular wipe of WebVM [1] profile and round robin&#x2F;semi-random choice of different search engines;<p>- mail :: simply do NOT use a webmail. It&#x27;s true that we do not have modern MUA for generic users, but we still have modern MUA, like notmuch or mu4e, with some frontends from mutt to astroid not only Emacs. Having a personal domain name (to not being tied to any specific vendor) and pay a <i>standard</i> mail service (not one who craft proprietary protocols &quot;for privacy&quot;) with IMAPs and SMTPs and that&#x27;s done, mail syncing <i>if needed</i> (OfflineIMAP&#x2F;Mbsync) or mail grabbing to a personal desktop or server (to serve multiple personal desktops) like classic fetchmail+MailDrop and done, a FAR better and faster than GMail solution;<p>- modern WebVM :: Firefox is the sole left &quot;a bit FLOSS&quot;;<p>- Google Authenticator :: no need for a TOTP on a personal local-first infra, if needed classic ssh + key based auth is far simpler and better;<p>- Drive :: being local my Drive alternative is typically called hard-disk (ssd, to be more precise) in various forms, from classic 2.5&quot; with a caddy to portable ones M.2 or 2.5&quot; sata with built-in usb adapter in the case, they are far faster than Drive, far more reliable and effective as part of a personal infra with relevant backups;<p>- Calendar :: org-agenda is FAR superior to a point I see no reasons to a UI like Calendar;<p>- Docs suite :: I have org-mode, notes accessed&#x2F;managed via org-roam&#x2F;org-attach and classic LaTeX with personal templates. Issues might pops up for collaboration with people who do not know them, but overall results are so superior that there is no reasons to use a classic modern office suite;<p>- Photos :: even Shotwell works well enough;<p>- YouTube :: podcasts fetched via rss and local storage with a local player works beautifully well;<p>-  Google Translate :: one or another in privacy terms are the same, unfortunately a good local version can&#x27;t exists since it&#x27;s a giant ML system, or to be more precise it can exists as a distributed tool, but so far no one have developed something AFAIK;<p>- Analytics :: I fail to see purpose for personal websites, for commerce etc anything FLOSS on their own server it&#x27;s ok;<p>- Maps :: hard to find a better option, OSM is better in very few places, but not in the rest 99% of my usage so...<p>- Play Store :: any distro &#x2F; FLOSS OS repos are FAR superior simply because they are the same things, without the crappy commercial part;<p>- Chrome OS :: I see no point i reviving dumb terminals with modern WebVM: if someone live on webcrapps... Well, it&#x27;s better change them;<p>- Android :: I see some reasons to use a smartphone but in too many case it&#x27;s not that needed.<p>- Hangouts :: Jami works well enough, no server required, SIP&#x2F;RTP are fully interoperable with classic PSTN...<p>- Domains :: there are countless actors who sell domains...<p>Long story short: please do not look for &quot;alternatives&quot; in the sense of &quot;copies&#x2F;variant of something&quot; but alternative paradigms. They are neglect these days, but still exists and often they are FAR superior to commercially backed ones.<p>[1] also known as &quot;browsers&quot; for legacy reasons","num_comments":null,"story_id":{"$numberInt":"30753606"},"story_title":"The complete list of alternatives to all Google products – TechSpot","story_url":"https://www.techspot.com/news/80729-complete-list-alternatives-all-google-products.html","parent_id":{"$numberInt":"30753606"},"created_at_i":{"$numberInt":"1647876025"},"_tags":["comment","author_kkfx","story_30753606"],"objectID":"30755088","_highlightResult":[{"author":{"value":"kkfx","matchLevel":"none","matchedWords":[]},"comment_text":{"value":"My own personal alternatives, but real ones not just another company:<p>- search :: use one or another, simply because the SOLE in the list really free is YaCy (distributed search based on solr) and it's actually not much good due to the small indexing activity by participants <em>nodes</em>. Seeing thing like <a href=\"https://noscriptfingerprint.com\" rel=\"nofollow\">https://noscriptfingerprint.com</a> I consider privacy as an impossible thing, my strategy is simply regular wipe of WebVM [1] profile and round robin/semi-random choice of different search engines;<p>- mail :: simply do NOT use a webmail. It's true that we do not have modern MUA for generic users, but we still have modern MUA, like notmuch or mu4e, with some frontends from mutt to astroid not only Emacs. Having a personal domain name (to not being tied to any specific vendor) and pay a <i>standard</i> mail service (not one who craft proprietary protocols &quot;for privacy&quot;) with IMAPs and SMTPs and that's done, mail syncing <i>if needed</i> (OfflineIMAP/Mbsync) or mail grabbing to a personal desktop or server (to serve multiple personal desktops) like classic fetchmail+MailDrop and done, a FAR better and faster than GMail solution;<p>- modern WebVM :: Firefox is the sole left &quot;a bit FLOSS&quot;;<p>- Google Authenticator :: no need for a TOTP on a personal local-first infra, if needed classic ssh + key based auth is far simpler and better;<p>- Drive :: being local my Drive alternative is typically called hard-disk (ssd, to be more precise) in various forms, from classic 2.5&quot; with a caddy to portable ones M.2 or 2.5&quot; sata with built-in usb adapter in the case, they are far faster than Drive, far more reliable and effective as part of a personal infra with relevant backups;<p>- Calendar :: org-agenda is FAR superior to a point I see no reasons to a UI like Calendar;<p>- Docs suite :: I have org-mode, notes accessed/managed via org-roam/org-attach and classic LaTeX with personal templates. Issues might pops up for collaboration with people who do not know them, but overall results are so superior that there is no reasons to use a classic modern office suite;<p>- Photos :: even Shotwell works well enough;<p>- YouTube :: podcasts fetched via rss and local storage with a local player works beautifully well;<p>-  Google Translate :: one or another in privacy terms are the same, unfortunately a good local version can't exists since it's a giant ML system, or to be more precise it can exists as a distributed tool, but so far no one have developed something AFAIK;<p>- Analytics :: I fail to see purpose for personal websites, for commerce etc anything FLOSS on their own server it's ok;<p>- Maps :: hard to find a better option, OSM is better in very few places, but not in the rest 99% of my usage so...<p>- Play Store :: any distro / FLOSS OS repos are FAR superior simply because they are the same things, without the crappy commercial part;<p>- Chrome OS :: I see no point i reviving dumb terminals with modern WebVM: if someone live on webcrapps... Well, it's better change them;<p>- Android :: I see some reasons to use a smartphone but in too many case it's not that needed.<p>- Hangouts :: Jami works well enough, no server required, SIP/RTP are fully interoperable with classic PSTN...<p>- Domains :: there are countless actors who sell domains...<p>Long story short: please do not look for &quot;alternatives&quot; in the sense of &quot;copies/variant of something&quot; but alternative paradigms. They are neglect these days, but still exists and often they are FAR superior to commercially backed ones.<p>[1] also known as &quot;browsers&quot; for legacy reasons","matchLevel":"full","fullyHighlighted":false,"matchedWords":["nodejs"]},"story_title":{"value":"The complete list of alternatives to all Google products – TechSpot","matchLevel":"none","matchedWords":[]},"story_url":{"value":"https://www.techspot.com/news/80729-complete-list-alternatives-all-google-products.html","matchLevel":"none","matchedWords":[]}}],"__v":{"$numberInt":"0"}}
{"_id":{"$oid":"62393bb04c8e748b63cfce5a"},"created_at":{"$date":{"$numberLong":"1647872185000"}},"title":"Ask HN: What are some recommended patterns when using Web Components?","url":null,"author":"alxthm","points":{"$numberInt":"3"},"story_text":"The MDN Web docs [0] are useful to understand what are custom elements, the shadow DOM, or templates and slots. But as someone starting with web components and front-end stuff in general, I was wondering about the recommended approaches&#x2F;design patterns when building more complex apps ?<p>For instance, how should components communicate with each other? By using a parent element systematically, firing up events from child nodes, then calling children methods from the parent node? Is this the equivalent of the &quot;props down, events up&quot; pattern in React for instance [1]?<p>Regarding the life-cycle, is there any reason to use the `constructor()` instead of the `connectedCallback()` for init code?<p>Another one that seems to have sparked some debate [2]: how to work with custom elements that need to interact with their children? Should I use `setTimeout()` to wait for the DOM to be parsed [3], should I use mutation observers, or should I fire up an event from the children to notify its parent when it is ready to be used?<p>These are just a couple questions that came up when reading about this, but I am curious about general best practices when building front-end apps using web components.<p>[0] https:&#x2F;&#x2F;developer.mozilla.org&#x2F;en-US&#x2F;docs&#x2F;Web&#x2F;Web_Components<p>[1] https:&#x2F;&#x2F;jasonformat.com&#x2F;props-down-events-up&#x2F;<p>[2] https:&#x2F;&#x2F;github.com&#x2F;WICG&#x2F;webcomponents&#x2F;issues&#x2F;809<p>[3] https:&#x2F;&#x2F;stackoverflow.com&#x2F;questions&#x2F;58354531&#x2F;custom-elements-connectedcallback-wait-for-parent-node-to-be-available-bef","comment_text":null,"num_comments":{"$numberInt":"0"},"story_id":null,"story_title":null,"story_url":null,"parent_id":null,"created_at_i":{"$numberInt":"1647872185"},"_tags":["story","author_alxthm","story_30754394","ask_hn"],"objectID":"30754394","_highlightResult":[{"title":{"value":"Ask HN: What are some recommended patterns when using Web Components?","matchLevel":"none","matchedWords":[]},"author":{"value":"alxthm","matchLevel":"none","matchedWords":[]},"story_text":{"value":"The MDN Web docs [0] are useful to understand what are custom elements, the shadow DOM, or templates and slots. But as someone starting with web components and front-end stuff in general, I was wondering about the recommended approaches/design patterns when building more complex apps ?<p>For instance, how should components communicate with each other? By using a parent element systematically, firing up events from child <em>nodes</em>, then calling children methods from the parent node? Is this the equivalent of the &quot;props down, events up&quot; pattern in React for instance [1]?<p>Regarding the life-cycle, is there any reason to use the `constructor()` instead of the `connectedCallback()` for init code?<p>Another one that seems to have sparked some debate [2]: how to work with custom elements that need to interact with their children? Should I use `setTimeout()` to wait for the DOM to be parsed [3], should I use mutation observers, or should I fire up an event from the children to notify its parent when it is ready to be used?<p>These are just a couple questions that came up when reading about this, but I am curious about general best practices when building front-end apps using web components.<p>[0] https://developer.mozilla.org/en-US/docs/Web/Web_Components<p>[1] https://jasonformat.com/props-down-events-up/<p>[2] https://github.com/WICG/webcomponents/issues/809<p>[3] https://stackoverflow.com/questions/58354531/custom-elements-connectedcallback-wait-for-parent-node-to-be-available-bef","matchLevel":"full","fullyHighlighted":false,"matchedWords":["nodejs"]}}],"__v":{"$numberInt":"0"}}
{"_id":{"$oid":"62393bb04c8e748b63cfce5c"},"created_at":{"$date":{"$numberLong":"1647871430000"}},"title":null,"url":null,"author":"mschuster91","points":null,"story_text":null,"comment_text":"&gt; In Ethereum, the &quot;lawyers&quot; and &quot;patent examiners&quot; are the other nodes in the network and the miners which enforce that the smart contract code ran as it was suppose to and can&#x27;t be undone.<p>You will run into problems though (and Ethereum has had way more than a fair share of these) if people fuck up their code so that others can exploit the code with behavior that was <i>not</i> supposed to happen.<p>In the real world, you and the counterparty would meet with your lawyers at a courthouse and have a good chance of winning if your claim is solid. In the cryptocoin world, there are no such entities by design, and every error you make cannot ever be recovered.","num_comments":null,"story_id":{"$numberInt":"30753404"},"story_title":"Vitalik Buterin is worried about crypto's future","story_url":"https://time.com/6158182/vitalik-buterin-ethereum-profile/","parent_id":{"$numberInt":"30753949"},"created_at_i":{"$numberInt":"1647871430"},"_tags":["comment","author_mschuster91","story_30753404"],"objectID":"30754234","_highlightResult":[{"author":{"value":"mschuster91","matchLevel":"none","matchedWords":[]},"comment_text":{"value":"&gt; In Ethereum, the &quot;lawyers&quot; and &quot;patent examiners&quot; are the other <em>nodes</em> in the network and the miners which enforce that the smart contract code ran as it was suppose to and can't be undone.<p>You will run into problems though (and Ethereum has had way more than a fair share of these) if people fuck up their code so that others can exploit the code with behavior that was <i>not</i> supposed to happen.<p>In the real world, you and the counterparty would meet with your lawyers at a courthouse and have a good chance of winning if your claim is solid. In the cryptocoin world, there are no such entities by design, and every error you make cannot ever be recovered.","matchLevel":"full","fullyHighlighted":false,"matchedWords":["nodejs"]},"story_title":{"value":"Vitalik Buterin is worried about crypto's future","matchLevel":"none","matchedWords":[]},"story_url":{"value":"https://time.com/6158182/vitalik-buterin-ethereum-profile/","matchLevel":"none","matchedWords":[]}}],"__v":{"$numberInt":"0"}}
{"_id":{"$oid":"62393bb04c8e748b63cfce5e"},"created_at":{"$date":{"$numberLong":"1647869830000"}},"title":null,"url":null,"author":"thesausageking","points":null,"story_text":null,"comment_text":"No. You&#x27;re being snarky and leaving out the main point of crypto: trust and coordination. Ethereum is the first shared computer that you can execute code with someone who&#x27;s openly hostile towards you and guarantee that the code will execute and perform what it was written to do.<p>Think of it more like the patent system. A patent is just a publicly available description of your invention. You could write it up yourself and publish it to a website for $5 &#x2F; mo, so why would you pay the &gt;$10k it costs to work with a lawyer and file a patent?<p>It&#x27;s not the description of the invention itself you&#x27;re paying for, but the rights you get that make it worth it to file a patent.<p>In Ethereum, the &quot;lawyers&quot; and &quot;patent examiners&quot; are the other nodes in the network and the miners which enforce that the smart contract code ran as it was suppose to and can&#x27;t be undone.","num_comments":null,"story_id":{"$numberInt":"30753404"},"story_title":"Vitalik Buterin is worried about crypto's future","story_url":"https://time.com/6158182/vitalik-buterin-ethereum-profile/","parent_id":{"$numberInt":"30753531"},"created_at_i":{"$numberInt":"1647869830"},"_tags":["comment","author_thesausageking","story_30753404"],"objectID":"30753949","_highlightResult":[{"author":{"value":"thesausageking","matchLevel":"none","matchedWords":[]},"comment_text":{"value":"No. You're being snarky and leaving out the main point of crypto: trust and coordination. Ethereum is the first shared computer that you can execute code with someone who's openly hostile towards you and guarantee that the code will execute and perform what it was written to do.<p>Think of it more like the patent system. A patent is just a publicly available description of your invention. You could write it up yourself and publish it to a website for $5 / mo, so why would you pay the &gt;$10k it costs to work with a lawyer and file a patent?<p>It's not the description of the invention itself you're paying for, but the rights you get that make it worth it to file a patent.<p>In Ethereum, the &quot;lawyers&quot; and &quot;patent examiners&quot; are the other <em>nodes</em> in the network and the miners which enforce that the smart contract code ran as it was suppose to and can't be undone.","matchLevel":"full","fullyHighlighted":false,"matchedWords":["nodejs"]},"story_title":{"value":"Vitalik Buterin is worried about crypto's future","matchLevel":"none","matchedWords":[]},"story_url":{"value":"https://time.com/6158182/vitalik-buterin-ethereum-profile/","matchLevel":"none","matchedWords":[]}}],"__v":{"$numberInt":"0"}}
{"_id":{"$oid":"62393bb04c8e748b63cfce60"},"created_at":{"$date":{"$numberLong":"1647866154000"}},"title":null,"url":null,"author":"pomdapi","points":null,"story_text":null,"comment_text":"(sorry, it&#x27;s a long one, you caught me on a day off, so I wrote long)<p>&gt; Don&#x27;t they have a right to decide? So why not let them take that risk if they wish?<p>Of course they do, they are recognized as a sovereign nation.<p>And again, without painting Russia as an innocent dove it ain&#x27;t : this is why you won&#x27;t find Lavrov or Putin ever having formally and directly asked Ukraine not to join. They limited themselves to saying publicly it was not something they wanted from their neighbour.<p>The only thing they asked formally and directly Ukraine not to do was 8 years ago about a planned EU trade treaty which directly contradicted the one they had already had in place for 10-15 years - that helped trigger Maidan.<p>What Russia has been asking is from NATO : that NATO should agree to never seek Ukraine out as member (which NATO did), or if Ukraine formally asked, to refuse them forever [0] - this was what the entire un-diplomatic ballet we saw last three months was about.<p>For an everyday&#x27;s man analogy, see [1] below.<p>-<p>&gt; Perhaps the real criticism should be that NATO dragged their feet for too long<p>I don&#x27;t believe they did drag their feet (see [0] below). It&#x27;s just that Moscow threw a monkey wrench into an accelerated entry with Crimea, just as it did in Georgia with Ossetia.<p>-<p>&gt; How do we know that NATO fears weren&#x27;t simply a useful pretext for empire building ambitions?<p>IMHO this particular attack&#x27;s public rationale is 2&#x2F;3rd a pretext (it&#x27;s indeed geo-economics), and 1&#x2F;3rd a justification (NATO has been starting wars and &quot;color revolutions&quot; all over the place for 30 years at a sustained rythm, you objectively can&#x27;t trust them not to continue).<p>Adam Shiff said it in front of the Senate a couple of years ago: &quot;U.S. backs Ukraine ‘so we can fight Russia over there, and not here&quot;<p>But in truth&#x2F;big pictures, yes it&#x27;s empires (plural) building and management. More importantly, it&#x27;s cultural and economic systems clashing, as we&#x27;re living in a networked world more than a world of nations now.<p>Lavrov made it extremely plain two days ago: &quot;It&#x27;s not about Ukraine at all, it&#x27;s about the ordering of the world. The current crisis is a pivotal moment in modern history. It reflects the battle over what the world order will look like,[...]&quot;<p>-<p>&gt; aggressive and unwanted Russian political interference, maybe they thought that Russia would invade anyway, and this was their only way to prevent that from happening.<p>I have a more neutral view.<p>The country is unbelievably corrupt and disfunctional.  Not one person there controls the whole of the state, least of all the president. It&#x27;s several overlapping influence networks (and mafias). All presidents, ruling cabinets, oligarchs since then were always compromitted to a high degree by either side.<p>No power bloc ever let the territory Ukraine be truly sovereign ever, even less so after Leonid Kuchma&#x27;s departure.<p>As such, NATO did not prevent or &quot;try to prevent&quot; anything. It&#x27;s just slowly losing this particular battle of interference to armored brigades, while it won others such fights in Ukraine in the past.<p>For having followed Ukrainian politics for 15 years (friends and work friends), and setting aside his apparently heroic resistance and actual presidential behaviour the last few weeks, I find anybody calling Zelensky anything else than a supremely corrupt authoritarian puppet of Kolomoiski&#x27;s (and now of any of Kolomoiski&#x27;s &quot;friends&quot;) woefully uninformed. Same as for calling its parliament &quot;democratic&quot;.<p>IMHO, this why what should in fact be the richest, largest country in Europe on paper is in fact the poorest. It is a state without a nation (yet) whose institutions are weak enough for it to not having ever known true independence and true sovereignty.<p>-<p>&gt; Why should we capitulate and allow one authoritarian nation to dictate the foreign policy decisions of a democratic neighbor?<p>Again, my view is much more neutral, but also way way more cynical an blasé than yours.<p>I find calling Ukraine a democracy somewhat unrelated to its reality for at least 20  years. Similarly, I don&#x27;t think anybody is defending democracy or the lives of ukrainians there right now.<p>To start, I generally replace the words &quot;civilised western world&quot; with &quot;self-content wealthy armed nations controlling all flows of money&quot;, and Russia is &quot;disgruntled armed nation controlling a lot of commodities flows&quot;.<p>Why so ?<p>I lost family to NATO airstrikes, then depleted uranium cancers. I then learned over the years, as people started talking, scandals erupted, archives were opened, posthumous autobiographies were published, tribunals made judgments that the leaders of various sides in my country shared bank ownerships in Paris and London, that 3&#x2F;4th of all regional wars&#x27; outcomes were mostly upon in much in advance following plans made in the 50s by infiltrated ex-Gelhen SS officers and NATO leadership in secret treaties, that recent intel. services heads and a couple prime ministers were CIA and BND assets, that Biden in 1985 as Senator was charged by a Reagan NatSec order prepared by Bush 1st to do the US political side of split the country, etc, etc ,etc. Could go on for hours.<p>Consequently, I can&#x27;t believe all the people alive and in power then in the western political establishment became suddeny genuinely interested in the good health of other populations.<p>As such, all the concepts you used in that sentence are, for me, just an efficacious, long running and successfull PR&#x2F;indoctrination ploy.<p>None maps to any situtation in reality [2]. It&#x27;s just way better structured than anything the KGB ever did.<p>-<p>&gt; There is no evidence of this that I&#x27;ve seen, and absent that evidence such a phrasing is misleading<p>To me, it looks like a duck, quacks like a duck, smells like a duck.<p>The treaty was about cataloguing and destroying the stock as per existing treaties - that takes some months to a year, not 17 years, and you don&#x27;t renovate the labs.<p>Also, &quot;food surveillance&quot; ? There enough small medical labs on every 5th street corner all over eastern europe for that to be a ridiculous claim.<p>To wit, somebody unearthed a contract further sample gathering contracted through a Pentagon tender with Black &amp; Veach to opperate it as such (also build 4 new labs). Also, nobody in the US disavowed the list of bacteries and viruses studied as part of these contracts, as presented by the Russian, and confirmed by the WHO press release - whereas such samples should have been announced to the BWRC treaty office on day 1 first in 1997, then again at the signature of the 2005 Obama Lugar treaty.<p>Finally, the US DoD guy in charge of counter-proliferation does more than just hint at it in a pre-invasion interview concerning these labs [3].<p>Anyways, we&#x27;ll know for sure if the Kremlin is full of it or not soon enough, they are reportedly preparing a well documented lawsuit, with plenty of witnesses.<p>-<p>[0] Now of course, public claims set aside, the reality : 3&#x2F;4th of Ukraines Army were NATO trained last 8 years, 2 bataillons each for 2 months, then 2 months on the Donbass front; between 5-7B$ in equipment were transferred&#x2F;bought with IMF loans; NATO military intelligence and satellite recon were, as is now obvious, already fully integrated with UA MoD command (as per an article I saw, IIRC in The Guardian, just Britain evacuated 700 officers the week before the attack); the SBU was basically a CIA regional office; Britain was almost finished building a NATO-standards port south of Kherson; the first half of Christa Freeland&#x27;s career; Burisma, the company with a CIA director, Biden&#x27;s son, Kolomoiski on the board had taken control of several gas transhipping nodes.<p>[1]<p>In more plain words, some guy&#x27;s ex-girlfriend has all rights to ask a neighbor two houses over out, as well as to ask him to move in next door together. She&#x27;s her own woman after all.<p>That guy can also still politely ask said neighbour to agree to refuse her advances and to move together for the sake of peace in the street. That is ok too, the neighbor is also his own man.<p>After all, both guys have violent pasts, and have short triggers. Also, the guy and the neighbor already had several fight, including the neighbor punching the guy 8 years ago + both fighting about another girlfriend 14 years ago [1].<p>Now Russia here is the guy who did that peacefully until it decided to beat the ex-girlfriend up on Feb 25th.<p>But biggest problem actually is both the neighbor and the guy are into polyamory. In fact they both have harems of babymamas they gaslight into giving them hard earned cash. They are also both supposedly reformed sociopathic criminals.<p>Funnily enough, the unsufferable Home Owners Association board of the next street over (the EU Commission) made everybody there start a hunger strike for some reason, supposedly because the guy is running a grocery, while leaving for the girl baseball bats she can&#x27;t reach right outside her house.<p>Unfunnily, everybody defunded the UN cops.<p>[2] As spoken by former Prime Minister Henry Palmerstone in the British Parliament in 1848, the full quote is as follows: &quot;We have no eternal allies, and we have no perpetual enemies. Our interests are eternal and perpetual, and those interests it is our duty to follow.&quot;<p>[3] <a href=\"https:&#x2F;&#x2F;thebulletin.org&#x2F;2022&#x2F;02&#x2F;us-official-russian-invasion-of-ukraine-risks-release-of-dangerous-pathogens&#x2F;\" rel=\"nofollow\">https:&#x2F;&#x2F;thebulletin.org&#x2F;2022&#x2F;02&#x2F;us-official-russian-invasion...</a>","num_comments":null,"story_id":{"$numberInt":"30731403"},"story_title":"Russia Will Not Allow Slovakia to Transfer S-300 Air Defence System to Ukraine","story_url":"https://www.ndtv.com/world-news/russia-will-not-allow-s-300-air-defence-system-transfer-to-ukraine-report-2830234","parent_id":{"$numberInt":"30736561"},"created_at_i":{"$numberInt":"1647866154"},"_tags":["comment","author_pomdapi","story_30731403"],"objectID":"30753334","_highlightResult":[{"author":{"value":"pomdapi","matchLevel":"none","matchedWords":[]},"comment_text":{"value":"(sorry, it's a long one, you caught me on a day off, so I wrote long)<p>&gt; Don't they have a right to decide? So why not let them take that risk if they wish?<p>Of course they do, they are recognized as a sovereign nation.<p>And again, without painting Russia as an innocent dove it ain't : this is why you won't find Lavrov or Putin ever having formally and directly asked Ukraine not to join. They limited themselves to saying publicly it was not something they wanted from their neighbour.<p>The only thing they asked formally and directly Ukraine not to do was 8 years ago about a planned EU trade treaty which directly contradicted the one they had already had in place for 10-15 years - that helped trigger Maidan.<p>What Russia has been asking is from NATO : that NATO should agree to never seek Ukraine out as member (which NATO did), or if Ukraine formally asked, to refuse them forever [0] - this was what the entire un-diplomatic ballet we saw last three months was about.<p>For an everyday's man analogy, see [1] below.<p>-<p>&gt; Perhaps the real criticism should be that NATO dragged their feet for too long<p>I don't believe they did drag their feet (see [0] below). It's just that Moscow threw a monkey wrench into an accelerated entry with Crimea, just as it did in Georgia with Ossetia.<p>-<p>&gt; How do we know that NATO fears weren't simply a useful pretext for empire building ambitions?<p>IMHO this particular attack's public rationale is 2/3rd a pretext (it's indeed geo-economics), and 1/3rd a justification (NATO has been starting wars and &quot;color revolutions&quot; all over the place for 30 years at a sustained rythm, you objectively can't trust them not to continue).<p>Adam Shiff said it in front of the Senate a couple of years ago: &quot;U.S. backs Ukraine ‘so we can fight Russia over there, and not here&quot;<p>But in truth/big pictures, yes it's empires (plural) building and management. More importantly, it's cultural and economic systems clashing, as we're living in a networked world more than a world of nations now.<p>Lavrov made it extremely plain two days ago: &quot;It's not about Ukraine at all, it's about the ordering of the world. The current crisis is a pivotal moment in modern history. It reflects the battle over what the world order will look like,[...]&quot;<p>-<p>&gt; aggressive and unwanted Russian political interference, maybe they thought that Russia would invade anyway, and this was their only way to prevent that from happening.<p>I have a more neutral view.<p>The country is unbelievably corrupt and disfunctional.  Not one person there controls the whole of the state, least of all the president. It's several overlapping influence networks (and mafias). All presidents, ruling cabinets, oligarchs since then were always compromitted to a high degree by either side.<p>No power bloc ever let the territory Ukraine be truly sovereign ever, even less so after Leonid Kuchma's departure.<p>As such, NATO did not prevent or &quot;try to prevent&quot; anything. It's just slowly losing this particular battle of interference to armored brigades, while it won others such fights in Ukraine in the past.<p>For having followed Ukrainian politics for 15 years (friends and work friends), and setting aside his apparently heroic resistance and actual presidential behaviour the last few weeks, I find anybody calling Zelensky anything else than a supremely corrupt authoritarian puppet of Kolomoiski's (and now of any of Kolomoiski's &quot;friends&quot;) woefully uninformed. Same as for calling its parliament &quot;democratic&quot;.<p>IMHO, this why what should in fact be the richest, largest country in Europe on paper is in fact the poorest. It is a state without a nation (yet) whose institutions are weak enough for it to not having ever known true independence and true sovereignty.<p>-<p>&gt; Why should we capitulate and allow one authoritarian nation to dictate the foreign policy decisions of a democratic neighbor?<p>Again, my view is much more neutral, but also way way more cynical an blasé than yours.<p>I find calling Ukraine a democracy somewhat unrelated to its reality for at least 20  years. Similarly, I don't think anybody is defending democracy or the lives of ukrainians there right now.<p>To start, I generally replace the words &quot;civilised western world&quot; with &quot;self-content wealthy armed nations controlling all flows of money&quot;, and Russia is &quot;disgruntled armed nation controlling a lot of commodities flows&quot;.<p>Why so ?<p>I lost family to NATO airstrikes, then depleted uranium cancers. I then learned over the years, as people started talking, scandals erupted, archives were opened, posthumous autobiographies were published, tribunals made judgments that the leaders of various sides in my country shared bank ownerships in Paris and London, that 3/4th of all regional wars' outcomes were mostly upon in much in advance following plans made in the 50s by infiltrated ex-Gelhen SS officers and NATO leadership in secret treaties, that recent intel. services heads and a couple prime ministers were CIA and BND assets, that Biden in 1985 as Senator was charged by a Reagan NatSec order prepared by Bush 1st to do the US political side of split the country, etc, etc ,etc. Could go on for hours.<p>Consequently, I can't believe all the people alive and in power then in the western political establishment became suddeny genuinely interested in the good health of other populations.<p>As such, all the concepts you used in that sentence are, for me, just an efficacious, long running and successfull PR/indoctrination ploy.<p>None maps to any situtation in reality [2]. It's just way better structured than anything the KGB ever did.<p>-<p>&gt; There is no evidence of this that I've seen, and absent that evidence such a phrasing is misleading<p>To me, it looks like a duck, quacks like a duck, smells like a duck.<p>The treaty was about cataloguing and destroying the stock as per existing treaties - that takes some months to a year, not 17 years, and you don't renovate the labs.<p>Also, &quot;food surveillance&quot; ? There enough small medical labs on every 5th street corner all over eastern europe for that to be a ridiculous claim.<p>To wit, somebody unearthed a contract further sample gathering contracted through a Pentagon tender with Black &amp; Veach to opperate it as such (also build 4 new labs). Also, nobody in the US disavowed the list of bacteries and viruses studied as part of these contracts, as presented by the Russian, and confirmed by the WHO press release - whereas such samples should have been announced to the BWRC treaty office on day 1 first in 1997, then again at the signature of the 2005 Obama Lugar treaty.<p>Finally, the US DoD guy in charge of counter-proliferation does more than just hint at it in a pre-invasion interview concerning these labs [3].<p>Anyways, we'll know for sure if the Kremlin is full of it or not soon enough, they are reportedly preparing a well documented lawsuit, with plenty of witnesses.<p>-<p>[0] Now of course, public claims set aside, the reality : 3/4th of Ukraines Army were NATO trained last 8 years, 2 bataillons each for 2 months, then 2 months on the Donbass front; between 5-7B$ in equipment were transferred/bought with IMF loans; NATO military intelligence and satellite recon were, as is now obvious, already fully integrated with UA MoD command (as per an article I saw, IIRC in The Guardian, just Britain evacuated 700 officers the week before the attack); the SBU was basically a CIA regional office; Britain was almost finished building a NATO-standards port south of Kherson; the first half of Christa Freeland's career; Burisma, the company with a CIA director, Biden's son, Kolomoiski on the board had taken control of several gas transhipping <em>nodes</em>.<p>[1]<p>In more plain words, some guy's ex-girlfriend has all rights to ask a neighbor two houses over out, as well as to ask him to move in next door together. She's her own woman after all.<p>That guy can also still politely ask said neighbour to agree to refuse her advances and to move together for the sake of peace in the street. That is ok too, the neighbor is also his own man.<p>After all, both guys have violent pasts, and have short triggers. Also, the guy and the neighbor already had several fight, including the neighbor punching the guy 8 years ago + both fighting about another girlfriend 14 years ago [1].<p>Now Russia here is the guy who did that peacefully until it decided to beat the ex-girlfriend up on Feb 25th.<p>But biggest problem actually is both the neighbor and the guy are into polyamory. In fact they both have harems of babymamas they gaslight into giving them hard earned cash. They are also both supposedly reformed sociopathic criminals.<p>Funnily enough, the unsufferable Home Owners Association board of the next street over (the EU Commission) made everybody there start a hunger strike for some reason, supposedly because the guy is running a grocery, while leaving for the girl baseball bats she can't reach right outside her house.<p>Unfunnily, everybody defunded the UN cops.<p>[2] As spoken by former Prime Minister Henry Palmerstone in the British Parliament in 1848, the full quote is as follows: &quot;We have no eternal allies, and we have no perpetual enemies. Our interests are eternal and perpetual, and those interests it is our duty to follow.&quot;<p>[3] <a href=\"https://thebulletin.org/2022/02/us-official-russian-invasion-of-ukraine-risks-release-of-dangerous-pathogens/\" rel=\"nofollow\">https://thebulletin.org/2022/02/us-official-russian-invasion...</a>","matchLevel":"full","fullyHighlighted":false,"matchedWords":["nodejs"]},"story_title":{"value":"Russia Will Not Allow Slovakia to Transfer S-300 Air Defence System to Ukraine","matchLevel":"none","matchedWords":[]},"story_url":{"value":"https://www.ndtv.com/world-news/russia-will-not-allow-s-300-air-defence-system-transfer-to-ukraine-report-2830234","matchLevel":"none","matchedWords":[]}}],"__v":{"$numberInt":"0"}}
{"_id":{"$oid":"62393bb04c8e748b63cfce62"},"created_at":{"$date":{"$numberLong":"1647849652000"}},"title":null,"url":null,"author":"Doxin","points":null,"story_text":null,"comment_text":"I feel like you could get some <i>real</i> nice CRT effects in blender by messing with shader nodes. I doubt a plugin would add much to that workflow that&#x27;s not there already natively.","num_comments":null,"story_id":{"$numberInt":"30734137"},"story_title":"Cool-retro-term: A terminal emulator which mimics the old cathode display","story_url":"https://github.com/Swordfish90/cool-retro-term","parent_id":{"$numberInt":"30745427"},"created_at_i":{"$numberInt":"1647849652"},"_tags":["comment","author_Doxin","story_30734137"],"objectID":"30751478","_highlightResult":[{"author":{"value":"Doxin","matchLevel":"none","matchedWords":[]},"comment_text":{"value":"I feel like you could get some <i>real</i> nice CRT effects in blender by messing with shader <em>nodes</em>. I doubt a plugin would add much to that workflow that's not there already natively.","matchLevel":"full","fullyHighlighted":false,"matchedWords":["nodejs"]},"story_title":{"value":"Cool-retro-term: A terminal emulator which mimics the old cathode display","matchLevel":"none","matchedWords":[]},"story_url":{"value":"https://github.com/Swordfish90/cool-retro-term","matchLevel":"none","matchedWords":[]}}],"__v":{"$numberInt":"0"}}
{"_id":{"$oid":"62393bb04c8e748b63cfce64"},"created_at":{"$date":{"$numberLong":"1647845351000"}},"title":null,"url":null,"author":"weihz","points":null,"story_text":null,"comment_text":"Hi, I’m building a site for hypertexting.<p>Use it for ideation, discussion, etc.<p>Create links between posts to create a hierarchy of tagging.<p>Vote on links to solidify this hierarchy<p>I’m hoping it becomes a fun spot to hang out.<p>It’s built on typescript, reactjs, apollo gql, nodejs, nestjs, postgres, heroku.<p>*The site is meant to be mobile compatible-- but it&#x27;s much more interesting on a laptop&#x2F;desktop.","num_comments":null,"story_id":{"$numberInt":"30751005"},"story_title":"Show HN: Mindscape.pub (Collaborative mind-mapping)","story_url":"https://www.mindscape.pub/","parent_id":{"$numberInt":"30751005"},"created_at_i":{"$numberInt":"1647845351"},"_tags":["comment","author_weihz","story_30751005"],"objectID":"30751007","_highlightResult":[{"author":{"value":"weihz","matchLevel":"none","matchedWords":[]},"comment_text":{"value":"Hi, I’m building a site for hypertexting.<p>Use it for ideation, discussion, etc.<p>Create links between posts to create a hierarchy of tagging.<p>Vote on links to solidify this hierarchy<p>I’m hoping it becomes a fun spot to hang out.<p>It’s built on typescript, reactjs, apollo gql, <em>nodejs</em>, nestjs, postgres, heroku.<p>*The site is meant to be mobile compatible-- but it's much more interesting on a laptop/desktop.","matchLevel":"full","fullyHighlighted":false,"matchedWords":["nodejs"]},"story_title":{"value":"Show HN: Mindscape.pub (Collaborative mind-mapping)","matchLevel":"none","matchedWords":[]},"story_url":{"value":"https://www.mindscape.pub/","matchLevel":"none","matchedWords":[]}}],"__v":{"$numberInt":"0"}}
{"_id":{"$oid":"62393bb04c8e748b63cfce66"},"created_at":{"$date":{"$numberLong":"1647839040000"}},"title":null,"url":null,"author":"namibj","points":null,"story_text":null,"comment_text":"LoRa gets part of its efficiency from fairly brutal sleeping, to the point where the radio would only get turned on to transmit when sensor data meaningfully changed or some (weeks) timeout comes up to say &quot;yes, I&#x27;m still alive&quot;.<p>Also, it&#x27;s range being longer than normal mobile phone cellular radio allows getting away with sparingly-positioned gateways.<p>Also it&#x27;s not truly star, but rather gateways vs. nodes (at least with the popular LoRaWAN stuff). All gateways that pick up a node&#x27;s transmission will report it to central servers.","num_comments":null,"story_id":{"$numberInt":"30748048"},"story_title":"Show HN: Open-Source 3D Location-Based Wireless Mesh Network","story_url":"https://github.com/kurthildebrand/hyperspace","parent_id":{"$numberInt":"30750278"},"created_at_i":{"$numberInt":"1647839040"},"_tags":["comment","author_namibj","story_30748048"],"objectID":"30750498","_highlightResult":[{"author":{"value":"namibj","matchLevel":"none","matchedWords":[]},"comment_text":{"value":"LoRa gets part of its efficiency from fairly brutal sleeping, to the point where the radio would only get turned on to transmit when sensor data meaningfully changed or some (weeks) timeout comes up to say &quot;yes, I'm still alive&quot;.<p>Also, it's range being longer than normal mobile phone cellular radio allows getting away with sparingly-positioned gateways.<p>Also it's not truly star, but rather gateways vs. <em>nodes</em> (at least with the popular LoRaWAN stuff). All gateways that pick up a <em>node's</em> transmission will report it to central servers.","matchLevel":"full","fullyHighlighted":false,"matchedWords":["nodejs"]},"story_title":{"value":"Show HN: Open-Source 3D Location-Based Wireless Mesh Network","matchLevel":"none","matchedWords":[]},"story_url":{"value":"https://github.com/kurthildebrand/hyperspace","matchLevel":"none","matchedWords":[]}}],"__v":{"$numberInt":"0"}}
{"_id":{"$oid":"62393bb04c8e748b63cfce68"},"created_at":{"$date":{"$numberLong":"1647831023000"}},"title":null,"url":null,"author":"syntheweave","points":null,"story_text":null,"comment_text":"When listed elements(including trees) are very large, there&#x27;s a reasonable compromise pattern throughout UI in pagination. We&#x27;ve already found that infinite scroll isn&#x27;t that desirable for productive UX because it eliminates any kind of landmarks, and tree views are the same way: so, my current belief on what to do is to default to expanding breadth-first to some limit, and then bias node expansion in places where the user has clicked, including some history so that the UI can present multiple leaf nodes simultaneously. You can imagine this as having cursors for each explored branch and viewing the area around the cursor, with &quot;18,000 more items...&quot; at the edges of the view.<p>Re: the layout problem, it seems to be a factor in a lot of real-world apps(buildings, hardware design, etc.) and to the extent that it&#x27;s &quot;solved&quot; by retained mode, it&#x27;s a solution based on moving around the processing order so that you deal with a different set of constraint edge cases manually. As such I think it really is just a unsolved class of issues, which wasn&#x27;t tackled before because it involved a degree of algorithmic complexity and resource use that wasn&#x27;t on the table in the 1980&#x27;s when the GUI was first widely adopted.<p>So I think it&#x27;s fine to explore having a whole algorithmic path and data structures dedicated to building the bounding targets for both collision and rendering - I have done similar when I&#x27;ve poked around at doing my own framework. That reflects the actual complexity of the solution, and it becomes especially apparent how deep you could go once you allow your targets to be arbitrary shapes with 2D transforms.","num_comments":null,"story_id":{"$numberInt":"30746110"},"story_title":"Ask HN: I'd like to practice coding GUI from scratch. Any recommendations?","story_url":null,"parent_id":{"$numberInt":"30747649"},"created_at_i":{"$numberInt":"1647831023"},"_tags":["comment","author_syntheweave","story_30746110"],"objectID":"30749583","_highlightResult":[{"author":{"value":"syntheweave","matchLevel":"none","matchedWords":[]},"comment_text":{"value":"When listed elements(including trees) are very large, there's a reasonable compromise pattern throughout UI in pagination. We've already found that infinite scroll isn't that desirable for productive UX because it eliminates any kind of landmarks, and tree views are the same way: so, my current belief on what to do is to default to expanding breadth-first to some limit, and then bias node expansion in places where the user has clicked, including some history so that the UI can present multiple leaf <em>nodes</em> simultaneously. You can imagine this as having cursors for each explored branch and viewing the area around the cursor, with &quot;18,000 more items...&quot; at the edges of the view.<p>Re: the layout problem, it seems to be a factor in a lot of real-world apps(buildings, hardware design, etc.) and to the extent that it's &quot;solved&quot; by retained mode, it's a solution based on moving around the processing order so that you deal with a different set of constraint edge cases manually. As such I think it really is just a unsolved class of issues, which wasn't tackled before because it involved a degree of algorithmic complexity and resource use that wasn't on the table in the 1980's when the GUI was first widely adopted.<p>So I think it's fine to explore having a whole algorithmic path and data structures dedicated to building the bounding targets for both collision and rendering - I have done similar when I've poked around at doing my own framework. That reflects the actual complexity of the solution, and it becomes especially apparent how deep you could go once you allow your targets to be arbitrary shapes with 2D transforms.","matchLevel":"full","fullyHighlighted":false,"matchedWords":["nodejs"]},"story_title":{"value":"Ask HN: I'd like to practice coding GUI from scratch. Any recommendations?","matchLevel":"none","matchedWords":[]}}],"__v":{"$numberInt":"0"}}
{"_id":{"$oid":"62393bb04c8e748b63cfce6a"},"created_at":{"$date":{"$numberLong":"1647823797000"}},"title":null,"url":null,"author":"almog","points":null,"story_text":null,"comment_text":"What you&#x27;re describing is Consistent Hashing. It is a mean to _assign partitions to nodes_ and it is independent of how you partition your _data_ (though it&#x27;s typically used with hash based partitioning of th edata).<p>At any rate, the way I understood it, the article described partitioning of the data by `key mod k`, k being the current number of nodes.","num_comments":null,"story_id":{"$numberInt":"30695323"},"story_title":"Sharding a database can make it faster","story_url":"https://stackoverflow.blog/2022/03/14/how-sharding-a-database-can-make-it-faster/","parent_id":{"$numberInt":"30746974"},"created_at_i":{"$numberInt":"1647823797"},"_tags":["comment","author_almog","story_30695323"],"objectID":"30748675","_highlightResult":[{"author":{"value":"almog","matchLevel":"none","matchedWords":[]},"comment_text":{"value":"What you're describing is Consistent Hashing. It is a mean to _assign partitions to <em>nodes</em>_ and it is independent of how you partition your _data_ (though it's typically used with hash based partitioning of th edata).<p>At any rate, the way I understood it, the article described partitioning of the data by `key mod k`, k being the current number of <em>nodes</em>.","matchLevel":"full","fullyHighlighted":false,"matchedWords":["nodejs"]},"story_title":{"value":"Sharding a database can make it faster","matchLevel":"none","matchedWords":[]},"story_url":{"value":"https://stackoverflow.blog/2022/03/14/how-sharding-a-database-can-make-it-faster/","matchLevel":"none","matchedWords":[]}}],"__v":{"$numberInt":"0"}}
{"_id":{"$oid":"62393bb04c8e748b63cfce6c"},"created_at":{"$date":{"$numberLong":"1647819943000"}},"title":"Show HN: Open-Source 3D Location-Based Wireless Mesh Network","url":"https://github.com/kurthildebrand/hyperspace","author":"khilde","points":{"$numberInt":"85"},"story_text":"I&#x27;ve decided to open source the project I&#x27;ve been working on called Hyperspace. Hyperspace is a suite of software implementing a wireless mesh network for IoT devices. My main requirements are listed on my repo but I&#x27;ll copy them here.<p>1. The mesh shall enable nodes to route packets amongst themselves.\n2. The mesh shall allow nodes with limited power to participate in routing packets.\n3. The mesh shall be IPv6 based.\n4. The mesh shall be local. I.E. not require connection to a remote server.\n5. The mesh should provide 3D location to nodes in the network.<p>Nodes use the Decawave DW1000 UWB radio to transmit and receive data, and to measure distances to other nodes. Location can be determined with enough distance measurements (see the documentation for more details). The implementation is pretty primitive at the moment. The border router server and the iOS app are super basic and have very little in terms of actual functionality, but the core ideas are there.<p>I&#x27;m not happy with the state of smart home devices. I don&#x27;t like it when a manufacturer shuts down a key server and bricks a bunch of devices. I don&#x27;t like it when devices don&#x27;t interoperate. Therefore, I&#x27;ve decided to open source this project in the hopes that it gains traction and that we can work on creating better IoT devices together.","comment_text":null,"num_comments":{"$numberInt":"11"},"story_id":null,"story_title":null,"story_url":null,"parent_id":null,"created_at_i":{"$numberInt":"1647819943"},"_tags":["story","author_khilde","story_30748048","show_hn"],"objectID":"30748048","_highlightResult":[{"title":{"value":"Show HN: Open-Source 3D Location-Based Wireless Mesh Network","matchLevel":"none","matchedWords":[]},"url":{"value":"https://github.com/kurthildebrand/hyperspace","matchLevel":"none","matchedWords":[]},"author":{"value":"khilde","matchLevel":"none","matchedWords":[]},"story_text":{"value":"I've decided to open source the project I've been working on called Hyperspace. Hyperspace is a suite of software implementing a wireless mesh network for IoT devices. My main requirements are listed on my repo but I'll copy them here.<p>1. The mesh shall enable <em>nodes</em> to route packets amongst themselves.\n2. The mesh shall allow <em>nodes</em> with limited power to participate in routing packets.\n3. The mesh shall be IPv6 based.\n4. The mesh shall be local. I.E. not require connection to a remote server.\n5. The mesh should provide 3D location to <em>nodes</em> in the network.<p><em>Nodes</em> use the Decawave DW1000 UWB radio to transmit and receive data, and to measure distances to other <em>nodes</em>. Location can be determined with enough distance measurements (see the documentation for more details). The implementation is pretty primitive at the moment. The border router server and the iOS app are super basic and have very little in terms of actual functionality, but the core ideas are there.<p>I'm not happy with the state of smart home devices. I don't like it when a manufacturer shuts down a key server and bricks a bunch of devices. I don't like it when devices don't interoperate. Therefore, I've decided to open source this project in the hopes that it gains traction and that we can work on creating better IoT devices together.","matchLevel":"full","fullyHighlighted":false,"matchedWords":["nodejs"]}}],"__v":{"$numberInt":"0"}}
